^F:\ONEDRIVE - SNHU\SNHU\SOPHOMORE YEAR\SPRING SEMESTER\GAME PROGRAMMING 2\PRACTICE\PRACTICE 2\GAM220 PRACTICE 2\GAM220 PRACTICE 2\DEBUG\PRACTICE2.OBJ
F:\ONEDRIVE - SNHU\SNHU\SOPHOMORE YEAR\SPRING SEMESTER\GAME PROGRAMMING 2\PRACTICE\PRACTICE 2\GAM220 PRACTICE 2\GAM220 PRACTICE 2\DEBUG\GAM220 PRACTICE 2.ILK
F:\ONEDRIVE - SNHU\SNHU\SOPHOMORE YEAR\SPRING SEMESTER\GAME PROGRAMMING 2\PRACTICE\PRACTICE 2\GAM220 PRACTICE 2\DEBUG\GAM220 PRACTICE 2.EXE
F:\ONEDRIVE - SNHU\SNHU\SOPHOMORE YEAR\SPRING SEMESTER\GAME PROGRAMMING 2\PRACTICE\PRACTICE 2\GAM220 PRACTICE 2\DEBUG\GAM220 PRACTICE 2.PDB
