^C:\USERS\J.DEARBORN\DOCUMENTS\JON\TEACHING\GAM-220-S22\BLOBZ\SDL_GPU_BASE\DEBUG\BLOB.OBJ|C:\USERS\J.DEARBORN\DOCUMENTS\JON\TEACHING\GAM-220-S22\BLOBZ\SDL_GPU_BASE\DEBUG\GAMEDATA.OBJ|C:\USERS\J.DEARBORN\DOCUMENTS\JON\TEACHING\GAM-220-S22\BLOBZ\SDL_GPU_BASE\DEBUG\MAIN.OBJ|C:\USERS\J.DEARBORN\DOCUMENTS\JON\TEACHING\GAM-220-S22\BLOBZ\SDL_GPU_BASE\DEBUG\TIMEDTEXT.OBJ
C:\USERS\J.DEARBORN\DOCUMENTS\JON\TEACHING\GAM-220-S22\BLOBZ\DEBUG\BLOBZ.EXE
C:\USERS\J.DEARBORN\DOCUMENTS\JON\TEACHING\GAM-220-S22\BLOBZ\SDL_GPU_BASE\DEBUG\BLOBZ.ILK
C:\USERS\J.DEARBORN\DOCUMENTS\JON\TEACHING\GAM-220-S22\BLOBZ\DEBUG\BLOBZ.PDB
